%!PS-Adobe-3.0 EPSF-3.0
%%Title: lossfnev.eps
%%Creator: matplotlib version 3.1.3, http://matplotlib.org/
%%CreationDate: Wed Oct 28 12:40:36 2020
%%Orientation: portrait
%%BoundingBox: 90.0 252.0 522.0 540.0
%%EndComments
%%BeginProlog
/mpldict 8 dict def
mpldict begin
/m { moveto } bind def
/l { lineto } bind def
/r { rlineto } bind def
/c { curveto } bind def
/cl { closepath } bind def
/box {
m
1 index 0 r
0 exch r
neg 0 r
cl
} bind def
/clipbox {
box
clip
newpath
} bind def
%!PS-Adobe-3.0 Resource-Font
%%Title: DejaVu Sans
%%Copyright: Copyright (c) 2003 by Bitstream, Inc. All Rights Reserved. Copyright (c) 2006 by Tavmjong Bah. All Rights Reserved. DejaVu changes are in public domain 
%%Creator: Converted from TrueType to type 3 by PPR
25 dict begin
/_d{bind def}bind def
/_m{moveto}_d
/_l{lineto}_d
/_cl{closepath eofill}_d
/_c{curveto}_d
/_sc{7 -1 roll{setcachedevice}{pop pop pop pop pop pop}ifelse}_d
/_e{exec}_d
/FontName /DejaVuSans def
/PaintType 0 def
/FontMatrix[.001 0 0 .001 0 0]def
/FontBBox[-1021 -463 1793 1232]def
/FontType 3 def
/Encoding [ /space /period /zero /one /two /three /four /five /six /eight /B /D /E /P /c /f /h /i /l /n /o /p /s /t /u /v ] def
/FontInfo 10 dict dup begin
/FamilyName (DejaVu Sans) def
/FullName (DejaVu Sans) def
/Notice (Copyright (c) 2003 by Bitstream, Inc. All Rights Reserved. Copyright (c) 2006 by Tavmjong Bah. All Rights Reserved. DejaVu changes are in public domain ) def
/Weight (Book) def
/Version (Version 2.35) def
/ItalicAngle 0.0 def
/isFixedPitch false def
/UnderlinePosition -130 def
/UnderlineThickness 90 def
end readonly def
/CharStrings 27 dict dup begin
/.notdef 0 def
/space{318 0 0 0 0 0 _sc
}_d
/period{318 0 107 0 210 124 _sc
107 124 _m
210 124 _l
210 0 _l
107 0 _l
107 124 _l
_cl}_d
/zero{636 0 66 -13 570 742 _sc
318 664 _m
267 664 229 639 203 589 _c
177 539 165 464 165 364 _c
165 264 177 189 203 139 _c
229 89 267 64 318 64 _c
369 64 407 89 433 139 _c
458 189 471 264 471 364 _c
471 464 458 539 433 589 _c
407 639 369 664 318 664 _c
318 742 _m
399 742 461 709 505 645 _c
548 580 570 486 570 364 _c
570 241 548 147 505 83 _c
461 19 399 -13 318 -13 _c
236 -13 173 19 130 83 _c
87 147 66 241 66 364 _c
66 486 87 580 130 645 _c
173 709 236 742 318 742 _c
_cl}_d
/one{636 0 110 0 544 729 _sc
124 83 _m
285 83 _l
285 639 _l
110 604 _l
110 694 _l
284 729 _l
383 729 _l
383 83 _l
544 83 _l
544 0 _l
124 0 _l
124 83 _l
_cl}_d
/two{{636 0 73 0 536 742 _sc
192 83 _m
536 83 _l
536 0 _l
73 0 _l
73 83 _l
110 121 161 173 226 239 _c
290 304 331 346 348 365 _c
380 400 402 430 414 455 _c
426 479 433 504 433 528 _c
433 566 419 598 392 622 _c
365 646 330 659 286 659 _c
255 659 222 653 188 643 _c
154 632 117 616 78 594 _c
78 694 _l
118 710 155 722 189 730 _c
223 738 255 742 284 742 _c
}_e{359 742 419 723 464 685 _c
509 647 532 597 532 534 _c
532 504 526 475 515 449 _c
504 422 484 390 454 354 _c
446 344 420 317 376 272 _c
332 227 271 164 192 83 _c
_cl}_e}_d
/three{{636 0 76 -13 556 742 _sc
406 393 _m
453 383 490 362 516 330 _c
542 298 556 258 556 212 _c
556 140 531 84 482 45 _c
432 6 362 -13 271 -13 _c
240 -13 208 -10 176 -4 _c
144 1 110 10 76 22 _c
76 117 _l
103 101 133 89 166 81 _c
198 73 232 69 268 69 _c
330 69 377 81 409 105 _c
441 129 458 165 458 212 _c
458 254 443 288 413 312 _c
383 336 341 349 287 349 _c
}_e{202 349 _l
202 430 _l
291 430 _l
339 430 376 439 402 459 _c
428 478 441 506 441 543 _c
441 580 427 609 401 629 _c
374 649 336 659 287 659 _c
260 659 231 656 200 650 _c
169 644 135 635 98 623 _c
98 711 _l
135 721 170 729 203 734 _c
235 739 266 742 296 742 _c
370 742 429 725 473 691 _c
517 657 539 611 539 553 _c
539 513 527 479 504 451 _c
481 423 448 403 406 393 _c
_cl}_e}_d
/four{636 0 49 0 580 729 _sc
378 643 _m
129 254 _l
378 254 _l
378 643 _l
352 729 _m
476 729 _l
476 254 _l
580 254 _l
580 172 _l
476 172 _l
476 0 _l
378 0 _l
378 172 _l
49 172 _l
49 267 _l
352 729 _l
_cl}_d
/five{{636 0 77 -13 549 729 _sc
108 729 _m
495 729 _l
495 646 _l
198 646 _l
198 467 _l
212 472 227 476 241 478 _c
255 480 270 482 284 482 _c
365 482 429 459 477 415 _c
525 370 549 310 549 234 _c
549 155 524 94 475 51 _c
426 8 357 -13 269 -13 _c
238 -13 207 -10 175 -6 _c
143 -1 111 6 77 17 _c
77 116 _l
106 100 136 88 168 80 _c
199 72 232 69 267 69 _c
}_e{323 69 368 83 401 113 _c
433 143 450 183 450 234 _c
450 284 433 324 401 354 _c
368 384 323 399 267 399 _c
241 399 214 396 188 390 _c
162 384 135 375 108 363 _c
108 729 _l
_cl}_e}_d
/six{{636 0 70 -13 573 742 _sc
330 404 _m
286 404 251 388 225 358 _c
199 328 186 286 186 234 _c
186 181 199 139 225 109 _c
251 79 286 64 330 64 _c
374 64 409 79 435 109 _c
461 139 474 181 474 234 _c
474 286 461 328 435 358 _c
409 388 374 404 330 404 _c
526 713 _m
526 623 _l
501 635 476 644 451 650 _c
425 656 400 659 376 659 _c
310 659 260 637 226 593 _c
}_e{192 549 172 482 168 394 _c
187 422 211 444 240 459 _c
269 474 301 482 336 482 _c
409 482 467 459 509 415 _c
551 371 573 310 573 234 _c
573 159 550 99 506 54 _c
462 9 403 -13 330 -13 _c
246 -13 181 19 137 83 _c
92 147 70 241 70 364 _c
70 479 97 571 152 639 _c
206 707 280 742 372 742 _c
396 742 421 739 447 735 _c
472 730 498 723 526 713 _c
_cl}_e}_d
/eight{{636 0 68 -13 568 742 _sc
318 346 _m
271 346 234 333 207 308 _c
180 283 167 249 167 205 _c
167 161 180 126 207 101 _c
234 76 271 64 318 64 _c
364 64 401 76 428 102 _c
455 127 469 161 469 205 _c
469 249 455 283 429 308 _c
402 333 365 346 318 346 _c
219 388 _m
177 398 144 418 120 447 _c
96 476 85 511 85 553 _c
85 611 105 657 147 691 _c
188 725 245 742 318 742 _c
}_e{390 742 447 725 489 691 _c
530 657 551 611 551 553 _c
551 511 539 476 515 447 _c
491 418 459 398 417 388 _c
464 377 501 355 528 323 _c
554 291 568 251 568 205 _c
568 134 546 80 503 43 _c
459 5 398 -13 318 -13 _c
237 -13 175 5 132 43 _c
89 80 68 134 68 205 _c
68 251 81 291 108 323 _c
134 355 171 377 219 388 _c
183 544 _m
183 506 194 476 218 455 _c
}_e{242 434 275 424 318 424 _c
360 424 393 434 417 455 _c
441 476 453 506 453 544 _c
453 582 441 611 417 632 _c
393 653 360 664 318 664 _c
275 664 242 653 218 632 _c
194 611 183 582 183 544 _c
_cl}_e}_d
/B{{686 0 98 0 615 729 _sc
197 348 _m
197 81 _l
355 81 _l
408 81 447 92 473 114 _c
498 136 511 169 511 215 _c
511 260 498 293 473 315 _c
447 337 408 348 355 348 _c
197 348 _l
197 648 _m
197 428 _l
343 428 _l
391 428 426 437 450 455 _c
474 473 486 500 486 538 _c
486 574 474 602 450 620 _c
426 638 391 648 343 648 _c
197 648 _l
98 729 _m
350 729 _l
}_e{425 729 483 713 524 682 _c
564 650 585 606 585 549 _c
585 504 574 468 553 442 _c
532 416 502 399 462 393 _c
510 382 548 360 575 327 _c
601 294 615 253 615 204 _c
615 138 592 88 548 53 _c
504 17 441 0 360 0 _c
98 0 _l
98 729 _l
_cl}_e}_d
/D{770 0 98 0 711 729 _sc
197 648 _m
197 81 _l
316 81 _l
416 81 490 103 537 149 _c
583 195 607 267 607 365 _c
607 463 583 534 537 580 _c
490 625 416 648 316 648 _c
197 648 _l
98 729 _m
301 729 _l
442 729 546 699 612 641 _c
678 582 711 490 711 365 _c
711 239 677 147 611 88 _c
545 29 441 0 301 0 _c
98 0 _l
98 729 _l
_cl}_d
/E{632 0 98 0 568 729 _sc
98 729 _m
559 729 _l
559 646 _l
197 646 _l
197 430 _l
544 430 _l
544 347 _l
197 347 _l
197 83 _l
568 83 _l
568 0 _l
98 0 _l
98 729 _l
_cl}_d
/P{603 0 98 0 569 729 _sc
197 648 _m
197 374 _l
321 374 _l
367 374 402 385 427 409 _c
452 433 465 467 465 511 _c
465 555 452 588 427 612 _c
402 636 367 648 321 648 _c
197 648 _l
98 729 _m
321 729 _l
402 729 464 710 506 673 _c
548 636 569 582 569 511 _c
569 439 548 384 506 348 _c
464 311 402 293 321 293 _c
197 293 _l
197 0 _l
98 0 _l
98 729 _l
_cl}_d
/c{{550 0 55 -13 488 560 _sc
488 526 _m
488 442 _l
462 456 437 466 411 473 _c
385 480 360 484 334 484 _c
276 484 230 465 198 428 _c
166 391 150 339 150 273 _c
150 206 166 154 198 117 _c
230 80 276 62 334 62 _c
360 62 385 65 411 72 _c
437 79 462 90 488 104 _c
488 21 _l
462 9 436 0 410 -5 _c
383 -10 354 -13 324 -13 _c
242 -13 176 12 128 64 _c
}_e{79 115 55 185 55 273 _c
55 362 79 432 128 483 _c
177 534 244 560 330 560 _c
358 560 385 557 411 551 _c
437 545 463 537 488 526 _c
_cl}_e}_d
/f{352 0 23 0 371 760 _sc
371 760 _m
371 685 _l
285 685 _l
253 685 230 678 218 665 _c
205 652 199 629 199 595 _c
199 547 _l
347 547 _l
347 477 _l
199 477 _l
199 0 _l
109 0 _l
109 477 _l
23 477 _l
23 547 _l
109 547 _l
109 585 _l
109 645 123 690 151 718 _c
179 746 224 760 286 760 _c
371 760 _l
_cl}_d
/h{634 0 91 0 549 760 _sc
549 330 _m
549 0 _l
459 0 _l
459 327 _l
459 379 448 417 428 443 _c
408 469 378 482 338 482 _c
289 482 251 466 223 435 _c
195 404 181 362 181 309 _c
181 0 _l
91 0 _l
91 760 _l
181 760 _l
181 462 _l
202 494 227 519 257 535 _c
286 551 320 560 358 560 _c
420 560 468 540 500 501 _c
532 462 549 405 549 330 _c
_cl}_d
/i{278 0 94 0 184 760 _sc
94 547 _m
184 547 _l
184 0 _l
94 0 _l
94 547 _l
94 760 _m
184 760 _l
184 646 _l
94 646 _l
94 760 _l
_cl}_d
/l{278 0 94 0 184 760 _sc
94 760 _m
184 760 _l
184 0 _l
94 0 _l
94 760 _l
_cl}_d
/n{634 0 91 0 549 560 _sc
549 330 _m
549 0 _l
459 0 _l
459 327 _l
459 379 448 417 428 443 _c
408 469 378 482 338 482 _c
289 482 251 466 223 435 _c
195 404 181 362 181 309 _c
181 0 _l
91 0 _l
91 547 _l
181 547 _l
181 462 _l
202 494 227 519 257 535 _c
286 551 320 560 358 560 _c
420 560 468 540 500 501 _c
532 462 549 405 549 330 _c
_cl}_d
/o{612 0 55 -13 557 560 _sc
306 484 _m
258 484 220 465 192 427 _c
164 389 150 338 150 273 _c
150 207 163 156 191 118 _c
219 80 257 62 306 62 _c
354 62 392 80 420 118 _c
448 156 462 207 462 273 _c
462 337 448 389 420 427 _c
392 465 354 484 306 484 _c
306 560 _m
384 560 445 534 490 484 _c
534 433 557 363 557 273 _c
557 183 534 113 490 63 _c
445 12 384 -13 306 -13 _c
227 -13 165 12 121 63 _c
77 113 55 183 55 273 _c
55 363 77 433 121 484 _c
165 534 227 560 306 560 _c
_cl}_d
/p{{635 0 91 -207 580 560 _sc
181 82 _m
181 -207 _l
91 -207 _l
91 547 _l
181 547 _l
181 464 _l
199 496 223 520 252 536 _c
281 552 316 560 356 560 _c
422 560 476 533 518 481 _c
559 428 580 359 580 273 _c
580 187 559 117 518 65 _c
476 13 422 -13 356 -13 _c
316 -13 281 -5 252 10 _c
223 25 199 49 181 82 _c
487 273 _m
487 339 473 390 446 428 _c
418 466 381 485 334 485 _c
}_e{286 485 249 466 222 428 _c
194 390 181 339 181 273 _c
181 207 194 155 222 117 _c
249 79 286 61 334 61 _c
381 61 418 79 446 117 _c
473 155 487 207 487 273 _c
_cl}_e}_d
/s{{521 0 54 -13 472 560 _sc
443 531 _m
443 446 _l
417 458 391 468 364 475 _c
336 481 308 485 279 485 _c
234 485 200 478 178 464 _c
156 450 145 430 145 403 _c
145 382 153 366 169 354 _c
185 342 217 330 265 320 _c
296 313 _l
360 299 405 279 432 255 _c
458 230 472 195 472 151 _c
472 100 452 60 412 31 _c
372 1 316 -13 246 -13 _c
216 -13 186 -10 154 -5 _c
}_e{122 0 89 8 54 20 _c
54 113 _l
87 95 120 82 152 74 _c
184 65 216 61 248 61 _c
290 61 323 68 346 82 _c
368 96 380 117 380 144 _c
380 168 371 187 355 200 _c
339 213 303 226 247 238 _c
216 245 _l
160 257 119 275 95 299 _c
70 323 58 356 58 399 _c
58 450 76 490 112 518 _c
148 546 200 560 268 560 _c
301 560 332 557 362 552 _c
391 547 418 540 443 531 _c
}_e{_cl}_e}_d
/t{392 0 27 0 368 702 _sc
183 702 _m
183 547 _l
368 547 _l
368 477 _l
183 477 _l
183 180 _l
183 135 189 106 201 94 _c
213 81 238 75 276 75 _c
368 75 _l
368 0 _l
276 0 _l
206 0 158 13 132 39 _c
106 65 93 112 93 180 _c
93 477 _l
27 477 _l
27 547 _l
93 547 _l
93 702 _l
183 702 _l
_cl}_d
/u{634 0 85 -13 543 560 _sc
85 216 _m
85 547 _l
175 547 _l
175 219 _l
175 167 185 129 205 103 _c
225 77 255 64 296 64 _c
344 64 383 79 411 110 _c
439 141 453 183 453 237 _c
453 547 _l
543 547 _l
543 0 _l
453 0 _l
453 84 _l
431 50 405 26 377 10 _c
348 -5 315 -13 277 -13 _c
214 -13 166 6 134 45 _c
101 83 85 140 85 216 _c
311 560 _m
311 560 _l
_cl}_d
/v{592 0 30 0 562 547 _sc
30 547 _m
125 547 _l
296 88 _l
467 547 _l
562 547 _l
357 0 _l
235 0 _l
30 547 _l
_cl}_d
end readonly def

/BuildGlyph
 {exch begin
 CharStrings exch
 2 copy known not{pop /.notdef}if
 true 3 1 roll get exec
 end}_d

/BuildChar {
 1 index /Encoding get exch get
 1 index /BuildGlyph get exec
}_d

FontName currentdict end definefont pop
end
%%EndProlog
mpldict begin
90 252 translate
432 288 0 0 clipbox
gsave
0 0 m
432 0 l
432 288 l
0 288 l
cl
1.000 setgray
fill
grestore
gsave
54 36 m
388.8 36 l
388.8 253.44 l
54 253.44 l
cl
1.000 setgray
fill
grestore
0.800 setlinewidth
1 setlinejoin
0 setlinecap
[] 0 setdash
0.000 setgray
gsave
/o {
gsave
newpath
translate
0.8 setlinewidth
1 setlinejoin
0 setlinecap
0 0 m
0 -3.5 l

gsave
0.000 setgray
fill
grestore
stroke
grestore
} bind def
69.2182 36 o
grestore
/DejaVuSans findfont
10.000 scalefont
setfont
gsave
66.038494 21.406250 translate
0.000000 rotate
0.000000 0.000000 m /zero glyphshow
grestore
gsave
/o {
gsave
newpath
translate
0.8 setlinewidth
1 setlinejoin
0 setlinecap
0 0 m
0 -3.5 l

gsave
0.000 setgray
fill
grestore
stroke
grestore
} bind def
130.14 36 o
grestore
gsave
120.600584 21.406250 translate
0.000000 rotate
0.000000 0.000000 m /five glyphshow
6.362305 0.000000 m /zero glyphshow
12.724609 0.000000 m /zero glyphshow
grestore
gsave
/o {
gsave
newpath
translate
0.8 setlinewidth
1 setlinejoin
0 setlinecap
0 0 m
0 -3.5 l

gsave
0.000 setgray
fill
grestore
stroke
grestore
} bind def
191.061 36 o
grestore
gsave
178.342361 21.406250 translate
0.000000 rotate
0.000000 0.000000 m /one glyphshow
6.362305 0.000000 m /zero glyphshow
12.724609 0.000000 m /zero glyphshow
19.086914 0.000000 m /zero glyphshow
grestore
gsave
/o {
gsave
newpath
translate
0.8 setlinewidth
1 setlinejoin
0 setlinecap
0 0 m
0 -3.5 l

gsave
0.000 setgray
fill
grestore
stroke
grestore
} bind def
251.983 36 o
grestore
gsave
239.263825 21.406250 translate
0.000000 rotate
0.000000 0.000000 m /one glyphshow
6.362305 0.000000 m /five glyphshow
12.724609 0.000000 m /zero glyphshow
19.086914 0.000000 m /zero glyphshow
grestore
gsave
/o {
gsave
newpath
translate
0.8 setlinewidth
1 setlinejoin
0 setlinecap
0 0 m
0 -3.5 l

gsave
0.000 setgray
fill
grestore
stroke
grestore
} bind def
312.904 36 o
grestore
gsave
300.185290 21.406250 translate
0.000000 rotate
0.000000 0.000000 m /two glyphshow
6.362305 0.000000 m /zero glyphshow
12.724609 0.000000 m /zero glyphshow
19.086914 0.000000 m /zero glyphshow
grestore
gsave
/o {
gsave
newpath
translate
0.8 setlinewidth
1 setlinejoin
0 setlinecap
0 0 m
0 -3.5 l

gsave
0.000 setgray
fill
grestore
stroke
grestore
} bind def
373.826 36 o
grestore
gsave
361.106754 21.406250 translate
0.000000 rotate
0.000000 0.000000 m /two glyphshow
6.362305 0.000000 m /five glyphshow
12.724609 0.000000 m /zero glyphshow
19.086914 0.000000 m /zero glyphshow
grestore
gsave
203.478125 7.734375 translate
0.000000 rotate
0.000000 0.000000 m /E glyphshow
6.318359 0.000000 m /p glyphshow
12.666016 0.000000 m /o glyphshow
18.784180 0.000000 m /c glyphshow
24.282227 0.000000 m /h glyphshow
30.620117 0.000000 m /s glyphshow
grestore
gsave
/o {
gsave
newpath
translate
0.8 setlinewidth
1 setlinejoin
0 setlinecap
0 0 m
-3.5 0 l

gsave
0.000 setgray
fill
grestore
stroke
grestore
} bind def
54 43.6905 o
grestore
gsave
31.093750 39.893576 translate
0.000000 rotate
0.000000 0.000000 m /three glyphshow
6.362305 0.000000 m /period glyphshow
9.541016 0.000000 m /zero glyphshow
grestore
gsave
/o {
gsave
newpath
translate
0.8 setlinewidth
1 setlinejoin
0 setlinecap
0 0 m
-3.5 0 l

gsave
0.000 setgray
fill
grestore
stroke
grestore
} bind def
54 77.502 o
grestore
gsave
31.093750 73.705113 translate
0.000000 rotate
0.000000 0.000000 m /three glyphshow
6.362305 0.000000 m /period glyphshow
9.541016 0.000000 m /two glyphshow
grestore
gsave
/o {
gsave
newpath
translate
0.8 setlinewidth
1 setlinejoin
0 setlinecap
0 0 m
-3.5 0 l

gsave
0.000 setgray
fill
grestore
stroke
grestore
} bind def
54 111.314 o
grestore
gsave
31.093750 107.516650 translate
0.000000 rotate
0.000000 0.000000 m /three glyphshow
6.362305 0.000000 m /period glyphshow
9.541016 0.000000 m /four glyphshow
grestore
gsave
/o {
gsave
newpath
translate
0.8 setlinewidth
1 setlinejoin
0 setlinecap
0 0 m
-3.5 0 l

gsave
0.000 setgray
fill
grestore
stroke
grestore
} bind def
54 145.125 o
grestore
gsave
31.093750 141.328187 translate
0.000000 rotate
0.000000 0.000000 m /three glyphshow
6.362305 0.000000 m /period glyphshow
9.541016 0.000000 m /six glyphshow
grestore
gsave
/o {
gsave
newpath
translate
0.8 setlinewidth
1 setlinejoin
0 setlinecap
0 0 m
-3.5 0 l

gsave
0.000 setgray
fill
grestore
stroke
grestore
} bind def
54 178.937 o
grestore
gsave
31.093750 175.139724 translate
0.000000 rotate
0.000000 0.000000 m /three glyphshow
6.362305 0.000000 m /period glyphshow
9.541016 0.000000 m /eight glyphshow
grestore
gsave
/o {
gsave
newpath
translate
0.8 setlinewidth
1 setlinejoin
0 setlinecap
0 0 m
-3.5 0 l

gsave
0.000 setgray
fill
grestore
stroke
grestore
} bind def
54 212.748 o
grestore
gsave
31.093750 208.951261 translate
0.000000 rotate
0.000000 0.000000 m /four glyphshow
6.362305 0.000000 m /period glyphshow
9.541016 0.000000 m /zero glyphshow
grestore
gsave
/o {
gsave
newpath
translate
0.8 setlinewidth
1 setlinejoin
0 setlinecap
0 0 m
-3.5 0 l

gsave
0.000 setgray
fill
grestore
stroke
grestore
} bind def
54 246.56 o
grestore
gsave
31.093750 242.762798 translate
0.000000 rotate
0.000000 0.000000 m /four glyphshow
6.362305 0.000000 m /period glyphshow
9.541016 0.000000 m /two glyphshow
grestore
gsave
25.015625 134.423125 translate
90.000000 rotate
0.000000 0.000000 m /B glyphshow
6.860352 0.000000 m /P glyphshow
12.890625 0.000000 m /D glyphshow
grestore
1.500 setlinewidth
2 setlinecap
0.122 0.467 0.706 setrgbcolor
gsave
334.8 217.4 54 36 clipbox
69.218182 158.26879 m
69.340025 147.663463 l
69.583711 179.555858 l
69.705554 165.122558 l
69.827396 168.251815 l
69.949239 147.946466 l
70.071082 163.390393 l
70.192925 142.926974 l
70.314768 160.386069 l
70.558454 149.978877 l
70.680297 160.62799 l
70.923983 157.380054 l
71.045826 146.833897 l
71.167669 150.691963 l
71.289512 137.050022 l
71.411355 139.750887 l
71.533197 156.084396 l
71.65504 148.252629 l
71.898726 149.937965 l
72.020569 144.12796 l
72.142412 155.246377 l
72.264255 143.846648 l
72.386098 167.012285 l
72.629784 148.144771 l
72.751627 143.497037 l
72.87347 162.776206 l
72.995313 150.271685 l
73.238998 192.432305 l
73.360841 206.544226 l
73.482684 166.901214 l
73.604527 200.703622 l
73.72637 179.61638 l
73.848213 178.332894 l
73.970056 169.726506 l
74.213742 178.179897 l
74.457428 160.281422 l
74.579271 173.390493 l
74.944799 136.505994 l
75.188485 153.556645 l
75.310328 163.206796 l
75.432171 149.020997 l
75.554014 150.404903 l
75.675857 148.556088 l
75.919543 135.399343 l
76.041386 144.201669 l
76.163229 144.497013 l
76.406915 137.368865 l
76.528758 135.261561 l
76.6506 144.378842 l
76.894286 133.633535 l
77.016129 134.539515 l
77.137972 137.360412 l
77.381658 156.884039 l
77.503501 157.255965 l
77.625344 138.261827 l
77.990873 156.990038 l
78.234559 129.75028 l
78.356401 154.159505 l
78.478244 150.600841 l
78.600087 130.400645 l
78.72193 141.285593 l
78.843773 140.875628 l
78.965616 137.065575 l
79.209302 152.9925 l
79.331145 139.899151 l
79.574831 162.00936 l
79.696674 146.361381 l
79.818517 168.193829 l
80.184045 144.898018 l
80.427731 159.73283 l
80.549574 155.4413 l
80.671417 143.349957 l
80.915103 176.728368 l
81.036946 175.312679 l
81.158789 161.669724 l
81.402475 195.193355 l
81.646161 169.181802 l
81.768003 166.994195 l
81.889846 162.683562 l
82.011689 176.545955 l
82.133532 154.546309 l
82.377218 198.576538 l
82.499061 157.286227 l
82.742747 233.010883 l
82.86459 243.556364 l
82.986433 190.593803 l
83.108276 230.129295 l
83.230119 176.930223 l
83.351962 214.54691 l
83.473804 201.691595 l
83.595647 176.398874 l
83.71749 183.36236 l
83.839333 156.310088 l
83.961176 177.126668 l
84.204862 160.795695 l
84.326705 153.202131 l
84.448548 160.279224 l
84.570391 159.305114 l
84.814077 142.960955 l
84.93592 143.303635 l
85.057763 159.058628 l
85.301448 136.302449 l
85.423291 151.691939 l
85.666977 136.82602 l
85.78882 131.053884 l
86.154349 138.687515 l
86.276192 139.127741 l
86.398035 138.463682 l
86.519878 132.888667 l
86.641721 139.144308 l
86.763564 127.949478 l
86.885407 135.066468 l
87.007249 133.911297 l
87.129092 136.468632 l
87.250935 148.051282 l
87.494621 138.373067 l
87.616464 136.661696 l
87.738307 145.95784 l
87.86015 136.706497 l
88.225679 149.475086 l
88.347522 137.090934 l
88.469365 143.920864 l
88.591208 128.569919 l
88.71305 136.778177 l
88.834893 133.493217 l
88.956736 124.29817 l
89.078579 140.632692 l
89.200422 139.065866 l
89.322265 135.801024 l
89.444108 145.920141 l
89.565951 125.370165 l
89.687794 131.498167 l
89.809637 130.639016 l
89.93148 132.329255 l
90.053323 128.838721 l
90.175166 117.472128 l
90.297009 135.409993 l
90.418851 132.810224 l
90.662537 134.970612 l
90.78438 134.732748 l
90.906223 130.377653 l
91.028066 121.386658 l
91.149909 146.701018 l
91.393595 111.19417 l
91.515438 145.531984 l
91.759124 141.937987 l
91.880967 153.619873 l
92.00281 127.030987 l
92.246495 144.24106 l
92.490181 134.220334 l
92.612024 146.447093 l
92.733867 132.083783 l
92.85571 135.610665 l
92.977553 133.90183 l
93.099396 140.122476 l
93.343082 135.210843 l
93.464925 142.861042 l
93.586768 137.115447 l
93.830453 163.13427 l
94.074139 129.922381 l
94.195982 131.943127 l
94.317825 116.916773 l
94.561511 137.495996 l
94.683354 131.667225 l
94.805197 131.290396 l
94.92704 131.93197 l
95.048883 143.449531 l
95.170726 120.870525 l
95.292569 137.892267 l
95.536254 131.317614 l
95.658097 134.56741 l
95.77994 141.754221 l
95.901783 122.866589 l
96.023626 144.541982 l
96.145469 131.966964 l
96.267312 138.675004 l
96.510998 120.338332 l
96.632841 113.186346 l
96.876527 138.794021 l
96.99837 123.056272 l
97.120213 124.283462 l
97.242055 136.433299 l
97.363898 133.266342 l
97.485741 124.454041 l
97.607584 131.021594 l
97.729427 121.515818 l
97.85127 129.186811 l
97.973113 126.578082 l
98.216799 130.831066 l
98.338642 126.603778 l
98.460485 115.581894 l
98.704171 139.861789 l
98.947856 118.07803 l
99.069699 130.76395 l
99.191542 123.155509 l
99.313385 128.222506 l
99.557071 118.667534 l
99.678914 121.101458 l
99.800757 125.921969 l
99.9226 124.755978 l
100.044443 110.419717 l
100.288129 140.174208 l
100.409972 141.132596 l
100.531815 156.011025 l
100.7755 125.227311 l
100.897343 150.700247 l
101.019186 143.484357 l
101.262872 154.908261 l
101.384715 132.431873 l
101.506558 136.334063 l
101.628401 160.68716 l
101.750244 158.294656 l
101.872087 145.982016 l
101.99393 158.263042 l
102.237616 144.122719 l
102.359458 153.558674 l
102.481301 146.648441 l
102.603144 151.548747 l
102.84683 136.329329 l
102.968673 135.393426 l
103.090516 140.759655 l
103.212359 139.944797 l
103.334202 123.397261 l
103.456045 143.630085 l
103.699731 133.349518 l
103.821574 123.042747 l
103.943417 131.285493 l
104.065259 125.380815 l
104.187102 136.091127 l
104.308945 122.271506 l
104.430788 131.700191 l
104.552631 132.436945 l
104.796317 126.921269 l
105.161846 124.154302 l
105.405532 117.693255 l
105.527375 134.4418 l
105.649218 115.353159 l
105.77106 122.372772 l
105.892903 114.897717 l
106.136589 127.075111 l
106.380275 121.935589 l
106.502118 138.602648 l
106.745804 118.137877 l
106.867647 136.299575 l
107.111333 120.175698 l
107.233176 123.287881 l
107.355019 139.404319 l
107.476861 125.125876 l
107.598704 126.281385 l
107.720547 123.992852 l
107.84239 125.752911 l
107.964233 117.493598 l
108.207919 119.718059 l
108.329762 119.007848 l
108.451605 138.164281 l
108.573448 109.468768 l
108.817134 122.076752 l
108.938977 117.888348 l
109.06082 122.75518 l
109.182662 116.861998 l
109.426348 123.193547 l
109.548191 121.041104 l
109.670034 128.884536 l
109.791877 126.723133 l
109.91372 137.195919 l
110.035563 113.4046 l
110.279249 127.015603 l
110.401092 110.192504 l
110.522935 124.372724 l
110.766621 118.79027 l
110.888463 124.989616 l
111.132149 114.075759 l
111.253992 112.097953 l
111.497678 129.3628 l
111.619521 115.053926 l
111.741364 125.962712 l
111.863207 118.339224 l
111.98505 121.066463 l
112.106893 129.072528 l
112.228736 144.904949 l
112.472422 127.001233 l
112.594265 141.746275 l
112.716107 123.534705 l
112.83795 157.030781 l
112.959793 151.970715 l
113.081636 132.626966 l
113.203479 169.47461 l
113.325322 166.970527 l
113.447165 177.503666 l
113.569008 154.385873 l
113.690851 180.897161 l
113.812694 125.320462 l
113.934537 151.090094 l
114.05638 151.740797 l
114.178223 134.074945 l
114.300066 165.075391 l
114.421908 152.411618 l
114.543751 162.8418 l
114.665594 159.05643 l
114.787437 134.854808 l
115.031123 160.356991 l
115.274809 148.796826 l
115.396652 143.662713 l
115.518495 133.594314 l
115.640338 135.910742 l
115.762181 144.139287 l
115.884024 135.955542 l
116.005867 139.816651 l
116.249552 128.940494 l
116.371395 141.769605 l
116.615081 128.814546 l
116.736924 131.349904 l
116.858767 138.977618 l
116.98061 126.199392 l
117.224296 133.901153 l
117.346139 124.162416 l
117.467982 130.434795 l
117.711668 121.212698 l
117.955353 128.920207 l
118.077196 126.106411 l
118.199039 135.633318 l
118.564568 119.910108 l
118.686411 128.768731 l
118.808254 146.8388 l
118.930097 121.450055 l
119.05194 131.026327 l
119.173783 118.049121 l
119.295626 129.49737 l
119.417469 116.786599 l
119.539311 123.836811 l
119.661154 118.435587 l
119.782997 120.345601 l
119.90484 117.9274 l
120.026683 110.637802 l
120.148526 143.136099 l
120.270369 116.981691 l
120.392212 122.10752 l
120.514055 113.948289 l
120.635898 126.110299 l
120.757741 114.785801 l
120.879584 126.190771 l
121.001427 116.814493 l
121.12327 126.672585 l
121.245112 107.443457 l
121.366955 123.534029 l
121.488798 115.632273 l
121.610641 142.638393 l
121.732484 128.420979 l
121.854327 129.334567 l
122.219856 109.947877 l
122.341699 129.900741 l
122.463542 105.495743 l
122.585385 118.311837 l
122.707228 114.399166 l
122.829071 104.856705 l
122.950913 119.677485 l
123.072756 112.452467 l
123.194599 120.876949 l
123.316442 120.879992 l
123.438285 110.549046 l
123.560128 115.368712 l
123.681971 111.065348 l
123.803814 111.245226 l
123.925657 122.788316 l
124.0475 116.709677 l
124.169343 98.834701 l
124.291186 120.802902 l
124.534872 114.892645 l
124.656714 101.238025 l
124.778557 104.534988 l
124.9004 104.295433 l
125.144086 122.167029 l
125.265929 113.442807 l
125.509615 125.264842 l
125.753301 109.993692 l
125.875144 116.323719 l
125.996987 107.527985 l
126.11883 112.478502 l
126.240673 112.478333 l
126.362515 106.566047 l
126.606201 112.776212 l
126.728044 111.514028 l
126.849887 123.575448 l
126.97173 104.858057 l
127.215416 120.602907 l
127.337259 109.68364 l
127.459102 126.398373 l
127.580945 109.836468 l
127.702788 123.115104 l
127.824631 118.943268 l
127.946474 118.816981 l
128.068316 101.089931 l
128.312002 112.701151 l
128.433845 101.552303 l
128.677531 108.506999 l
128.799374 117.623434 l
128.921217 111.490529 l
129.04306 122.209631 l
129.164903 114.608121 l
129.286746 116.841542 l
129.408589 104.201437 l
129.530432 106.476447 l
129.652275 96.943622 l
129.774117 114.377189 l
130.017803 105.350861 l
130.139646 122.665072 l
130.261489 122.264237 l
130.383332 125.872773 l
130.505175 112.324828 l
130.748861 145.517952 l
130.870704 158.721865 l
131.11439 107.710737 l
131.236233 137.657953 l
131.358076 113.758776 l
131.479918 125.368643 l
131.601761 113.438918 l
131.845447 130.250015 l
131.96729 122.845795 l
132.089133 125.370165 l
132.210976 125.426461 l
132.454662 128.950975 l
132.576505 123.370381 l
132.820191 142.384975 l
132.942034 141.680005 l
133.185719 116.918971 l
133.429405 139.987399 l
133.551248 139.287838 l
133.794934 120.957083 l
133.916777 135.098251 l
134.03862 126.302349 l
134.160463 133.354083 l
134.282306 116.742644 l
134.404149 127.780927 l
134.525992 127.126167 l
134.769678 105.897086 l
134.89152 125.262306 l
135.013363 116.172074 l
135.135206 123.11409 l
135.257049 116.974591 l
135.378892 121.722914 l
135.500735 115.357216 l
135.622578 122.885524 l
135.744421 120.423368 l
135.866264 107.590706 l
135.988107 112.752713 l
136.10995 110.181008 l
136.231793 123.749408 l
136.353636 112.079864 l
136.475479 129.700408 l
136.597321 119.115875 l
136.719164 128.019467 l
136.841007 110.249476 l
136.96285 122.982732 l
137.084693 121.55859 l
137.206536 123.449838 l
137.328379 114.706175 l
137.450222 118.352918 l
137.572065 114.428075 l
137.693908 123.780684 l
137.815751 119.642152 l
137.937594 106.826058 l
138.059437 124.315752 l
138.303122 112.308599 l
138.424965 132.118947 l
138.546808 103.377112 l
138.668651 126.077333 l
138.912337 108.825503 l
139.03418 114.953337 l
139.156023 134.790059 l
139.277866 106.423193 l
139.521552 120.346784 l
139.765238 107.151494 l
139.887081 117.061486 l
140.130766 106.229115 l
140.252609 109.984056 l
140.496295 118.514706 l
140.618138 113.409333 l
140.739981 119.088826 l
140.983667 108.858977 l
141.227353 131.587599 l
141.349196 95.776279 l
141.471039 118.890014 l
141.592882 118.663815 l
141.95841 105.888633 l
142.202096 115.126959 l
142.323939 109.055422 l
142.567625 111.5781 l
142.689468 118.091048 l
142.933154 108.936743 l
143.054997 104.754763 l
143.17684 115.399818 l
143.298683 100.644802 l
143.420526 100.660524 l
143.664211 113.035547 l
144.02974 92.661391 l
144.395269 105.232013 l
144.517112 117.96865 l
144.638955 105.670718 l
144.760798 117.556656 l
144.882641 100.67202 l
145.004484 112.9686 l
145.248169 101.86692 l
145.370012 104.565757 l
145.491855 103.397399 l
145.613698 120.410688 l
145.857384 113.021177 l
146.10107 120.762835 l
146.222913 111.277347 l
146.344756 112.678159 l
146.588442 128.70787 l
146.710285 113.809662 l
146.832128 120.66867 l
146.95397 112.978912 l
147.075813 129.210479 l
147.197656 128.866616 l
147.319499 115.204557 l
147.441342 115.549435 l
147.685028 125.780298 l
147.928714 131.690048 l
148.050557 126.395161 l
148.1724 128.446676 l
148.416086 164.00272 l
148.659771 148.689136 l
148.781614 119.697772 l
149.0253 163.523103 l
149.268986 129.879102 l
149.390829 148.1539 l
149.512672 139.960519 l
149.634515 139.646241 l
149.756358 133.946123 l
149.878201 111.696948 l
150.000044 134.803583 l
150.121887 125.084457 l
150.24373 124.807371 l
150.609258 117.132998 l
150.731101 129.985608 l
150.852944 129.75755 l
150.974787 110.899334 l
151.09663 123.33826 l
151.218473 116.09735 l
151.340316 125.230692 l
151.462159 122.667439 l
151.705845 111.234575 l
151.827688 132.637447 l
152.071373 103.390299 l
152.193216 112.117902 l
152.315059 107.18801 l
152.436902 119.998188 l
152.558745 112.467006 l
152.680588 116.886343 l
152.802431 100.58597 l
152.924274 101.778672 l
153.046117 104.91858 l
153.16796 120.892165 l
153.411646 104.272442 l
153.533489 101.180377 l
153.655332 104.007021 l
153.777174 112.531417 l
153.899017 93.748939 l
154.02086 117.399095 l
154.386389 94.811635 l
154.508232 107.435511 l
154.630075 95.306636 l
154.751918 117.037142 l
154.995604 107.278287 l
155.117447 113.90501 l
155.23929 108.020789 l
155.361133 94.999797 l
155.604818 119.013088 l
155.726661 105.401409 l
155.970347 112.361514 l
156.09219 102.796568 l
156.335876 121.16756 l
156.457719 100.761621 l
156.701405 107.915466 l
156.823248 101.858467 l
156.945091 102.09109 l
157.066934 117.561052 l
157.188776 102.00859 l
157.310619 117.88784 l
157.554305 92.385489 l
157.797991 122.167705 l
157.919834 99.78582 l
158.041677 113.266649 l
158.285363 99.331224 l
158.529049 127.367412 l
158.650892 103.821565 l
158.772735 112.571991 l
158.894577 106.494198 l
159.01642 111.7289 l
159.138263 108.151808 l
159.260106 115.827365 l
159.381949 97.541072 l
159.503792 102.435292 l
159.625635 119.546634 l
159.747478 110.289881 l
159.991164 127.521593 l
160.113007 129.508528 l
160.23485 102.917275 l
160.356693 104.262298 l
160.478536 128.408469 l
160.600378 112.691514 l
160.722221 125.11083 l
160.844064 118.741075 l
160.965907 120.795294 l
161.209593 129.212169 l
161.331436 115.606407 l
161.453279 125.964571 l
161.575122 125.313192 l
161.696965 133.10692 l
161.818808 119.71789 l
162.062494 128.565355 l
162.184337 124.711516 l
162.306179 112.205473 l
162.428022 123.185601 l
162.671708 111.881052 l
162.793551 114.028084 l
162.915394 106.953866 l
163.15908 137.791678 l
163.280923 119.173355 l
163.646452 138.735358 l
163.768295 132.754773 l
163.890138 134.246707 l
164.01198 137.781196 l
164.133823 124.125055 l
164.377509 134.399874 l
164.499352 102.963766 l
164.621195 136.857465 l
164.743038 128.04584 l
164.864881 110.165623 l
164.986724 137.049177 l
165.108567 119.610707 l
165.23041 122.499227 l
165.352253 106.39327 l
165.474096 117.469592 l
165.595939 108.858131 l
165.717781 118.459763 l
165.839624 104.39839 l
165.961467 118.42612 l
166.08331 105.191946 l
166.205153 104.91672 l
166.448839 112.90216 l
166.570682 112.635049 l
166.692525 101.300915 l
166.814368 101.00574 l
166.936211 103.083797 l
167.058054 117.846421 l
167.179897 103.032234 l
167.30174 105.688638 l
167.423583 101.233123 l
167.545425 106.623696 l
167.667268 95.421257 l
167.789111 118.197892 l
168.032797 99.386844 l
168.15464 110.549384 l
168.276483 97.638111 l
168.398326 98.789394 l
168.520169 94.784248 l
168.642012 98.428117 l
168.885698 94.870975 l
169.007541 95.879066 l
169.129384 105.755416 l
169.251226 96.878197 l
169.373069 100.365349 l
169.494912 91.030998 l
169.616755 109.740951 l
169.982284 88.996389 l
170.104127 91.27478 l
170.22597 109.517794 l
170.347813 96.396382 l
170.591499 110.302222 l
170.835185 100.961785 l
170.957027 107.801859 l
171.07887 104.95628 l
171.200713 105.267008 l
171.322556 89.819024 l
171.444399 91.679166 l
171.566242 110.886824 l
171.809928 85.032494 l
171.931771 105.699288 l
172.053614 91.547132 l
172.419143 108.996421 l
172.662828 91.410195 l
172.784671 88.515251 l
172.906514 97.117075 l
173.028357 90.599901 l
173.1502 104.110653 l
173.393886 99.973643 l
173.637572 89.995351 l
173.759415 99.242806 l
173.881258 99.583965 l
174.003101 88.897152 l
174.246787 106.096574 l
174.368629 84.518896 l
174.490472 105.021874 l
174.612315 92.373316 l
174.734158 114.707527 l
174.856001 108.182915 l
174.977844 89.529428 l
175.099687 96.502381 l
175.343373 88.502403 l
175.465216 99.278309 l
175.587059 94.962773 l
175.708902 105.591937 l
175.830745 100.151153 l
176.07443 112.479347 l
176.196273 93.751475 l
176.318116 93.993058 l
176.439959 97.037787 l
176.683645 105.275123 l
176.805488 91.884402 l
176.927331 109.849655 l
177.171017 100.04059 l
177.29286 113.300798 l
177.414703 106.416431 l
177.536546 87.161099 l
177.658389 111.953408 l
177.902074 98.317047 l
178.023917 115.342846 l
178.14576 98.954394 l
178.267603 122.852896 l
178.389446 110.218369 l
178.511289 112.431842 l
178.633132 136.613177 l
178.754975 132.677345 l
178.876818 134.504182 l
178.998661 145.014329 l
179.120504 139.818849 l
179.242347 120.664782 l
179.486032 143.946223 l
179.607875 143.755019 l
179.729718 146.532467 l
179.973404 168.174556 l
180.095247 169.20716 l
180.21709 139.765088 l
180.338933 147.058406 l
180.826305 123.533015 l
181.313676 133.121967 l
181.435519 141.507228 l
181.557362 124.659953 l
181.801048 150.36585 l
181.922891 135.574825 l
182.044734 164.542859 l
182.166577 126.348332 l
182.28842 137.058813 l
182.410263 126.949163 l
182.532106 129.767693 l
182.775792 116.892091 l
182.897634 108.859146 l
183.14132 139.964407 l
183.263163 128.734412 l
183.385006 128.918347 l
183.506849 110.22716 l
183.628692 132.652662 l
183.872378 112.430996 l
183.994221 114.657317 l
184.116064 111.128069 l
184.237907 121.964328 l
184.35975 103.648619 l
184.481593 113.334272 l
184.725278 110.623432 l
184.847121 114.572281 l
184.968964 111.302705 l
185.090807 100.701605 l
185.21265 112.467513 l
185.334493 97.818664 l
185.456336 110.447781 l
185.578179 104.343953 l
185.700022 107.341853 l
185.821865 102.732833 l
185.943708 108.873008 l
186.187394 97.48748 l
186.309236 101.177672 l
186.431079 87.458133 l
186.552922 100.464248 l
186.674765 89.346 l
186.918451 108.130845 l
187.040294 87.887371 l
187.162137 102.251864 l
187.405823 96.620045 l
187.527666 96.676342 l
187.771352 102.72438 l
188.015037 81.256759 l
188.13688 102.655912 l
188.258723 99.826055 l
188.380566 89.581667 l
188.502409 103.539069 l
188.624252 102.020762 l
189.111624 86.88469 l
189.233467 100.905151 l
189.35531 89.386743 l
189.477153 96.478037 l
189.598996 92.415919 l
189.842681 97.172526 l
189.964524 85.247028 l
190.086367 96.243385 l
190.20821 89.483952 l
190.330053 101.970383 l
190.573739 76.857709 l
190.695582 83.073284 l
190.817425 103.00603 l
190.939268 98.995813 l
191.061111 111.941405 l
191.426639 92.036384 l
191.548482 89.108305 l
191.670325 101.596766 l
191.792168 100.502286 l
191.914011 105.672915 l
192.035854 87.289921 l
192.157697 89.552251 l
192.27954 102.820236 l
192.523226 84.191432 l
192.766912 99.890297 l
192.888755 102.337069 l
193.13244 81.542805 l
193.376126 98.507913 l
193.497969 97.67953 l
193.619812 96.012621 l
193.741655 98.761161 l
193.863498 104.696945 l
194.229027 87.660664 l
194.35087 106.286426 l
194.472713 84.379931 l
194.594556 83.901667 l
194.716399 82.443375 l
194.838242 92.16808 l
194.960084 85.881163 l
195.081927 90.317575 l
195.20377 104.832192 l
195.447456 88.407054 l
195.691142 93.22131 l
195.812985 100.715468 l
195.934828 85.455814 l
196.056671 103.037475 l
196.178514 83.742414 l
196.300357 97.846052 l
196.4222 91.97806 l
196.665885 106.780412 l
196.787728 91.963859 l
196.909571 97.445047 l
197.031414 109.404019 l
197.153257 105.505041 l
197.2751 91.886092 l
197.518786 115.900567 l
197.640629 116.799616 l
197.762472 107.840573 l
197.884315 89.478711 l
198.128001 122.203545 l
198.249844 129.328312 l
198.371686 117.944644 l
198.493529 139.21041 l
198.615372 138.604676 l
198.737215 172.895492 l
198.980901 122.893808 l
199.224587 167.574401 l
199.34643 169.170644 l
199.468273 174.132318 l
199.711959 138.972208 l
199.833802 140.123322 l
199.955645 145.600791 l
200.19933 116.724724 l
200.321173 127.061587 l
200.443016 126.701832 l
200.686702 111.86516 l
200.808545 134.295058 l
200.930388 134.355242 l
201.052231 112.179608 l
201.174074 119.501665 l
201.295917 109.450679 l
201.41776 113.884723 l
201.539603 113.32379 l
201.783288 100.260196 l
201.905131 116.259646 l
202.148817 95.342984 l
202.392503 114.191394 l
202.514346 114.761626 l
202.758032 91.370804 l
202.879875 99.733074 l
203.001718 116.689221 l
203.123561 89.675832 l
203.367247 113.548975 l
203.489089 91.833346 l
203.610932 103.216845 l
203.732775 102.544672 l
203.854618 105.306906 l
204.098304 92.29555 l
204.220147 99.248723 l
204.34199 78.250068 l
204.463833 96.300696 l
204.585676 89.774224 l
204.829362 94.432439 l
205.073048 79.758908 l
205.316733 87.435141 l
205.438576 108.437347 l
205.560419 83.844356 l
205.682262 105.037597 l
205.804105 82.032227 l
206.047791 104.300167 l
206.291477 91.70706 l
206.41332 87.392708 l
206.535163 93.590701 l
206.778849 90.793303 l
206.900691 92.64364 l
207.022534 86.418767 l
207.144377 97.041337 l
207.26622 88.881261 l
207.388063 93.731526 l
207.509906 88.532495 l
207.753592 108.957537 l
207.875435 89.237804 l
207.997278 89.2941 l
208.119121 87.583067 l
208.240964 88.865877 l
208.362807 86.591544 l
208.48465 81.560218 l
208.728335 89.893578 l
208.850178 91.143253 l
208.972021 89.480401 l
209.093864 82.668898 l
209.215707 91.423043 l
209.33755 86.817743 l
209.459393 90.731597 l
209.581236 88.860974 l
209.703079 88.89394 l
209.824922 94.520518 l
209.946765 94.433622 l
210.190451 90.916039 l
210.312293 93.016581 l
210.434136 99.466132 l
210.555979 88.747874 l
210.677822 98.042497 l
210.799665 97.958475 l
211.043351 86.13103 l
211.165194 96.239666 l
211.287037 92.06411 l
211.40888 98.061262 l
211.652566 83.428981 l
211.774409 85.047371 l
211.896252 98.234377 l
212.018094 83.148008 l
212.139937 85.008487 l
212.26178 82.319794 l
212.383623 104.169824 l
212.505466 84.235387 l
212.627309 88.444078 l
212.749152 78.410166 l
212.870995 90.272775 l
212.992838 78.677615 l
213.236524 96.151587 l
213.358367 98.39904 l
213.48021 79.099752 l
213.602053 82.994841 l
213.845738 94.679939 l
213.967581 73.848651 l
214.211267 95.102922 l
214.33311 84.056185 l
214.576796 95.201144 l
214.698639 90.058071 l
214.820482 92.074084 l
214.942325 84.61695 l
215.064168 104.45401 l
215.186011 98.501658 l
215.307854 80.737245 l
215.429696 93.026048 l
215.673382 82.765092 l
215.795225 95.82446 l
215.917068 94.150789 l
216.038911 88.390317 l
216.160754 88.308155 l
216.40444 109.386775 l
216.526283 104.578605 l
216.648126 105.697429 l
216.769969 101.488738 l
217.013655 154.433209 l
217.135497 141.002929 l
217.379183 154.604465 l
217.501026 134.446026 l
217.622869 151.520684 l
217.744712 142.937963 l
217.866555 122.95433 l
217.988398 128.388689 l
218.232084 114.412014 l
218.353927 121.49046 l
218.47577 116.531322 l
218.597613 126.40615 l
218.719456 116.147053 l
218.841298 136.65206 l
218.963141 119.411895 l
219.084984 123.089238 l
219.206827 99.972628 l
219.32867 108.227546 l
219.450513 102.42481 l
219.572356 106.686078 l
219.816042 104.520449 l
220.059728 97.328059 l
220.181571 98.13514 l
220.303414 113.086433 l
220.425257 89.577609 l
220.547099 102.551942 l
220.668942 86.426374 l
220.790785 97.477675 l
220.912628 94.215369 l
221.034471 73.934026 l
221.156314 103.115073 l
221.278157 77.854304 l
221.4 91.282725 l
221.521843 87.948232 l
221.765529 100.733557 l
221.887372 87.300064 l
222.009215 93.282171 l
222.131058 84.787529 l
222.252901 92.061912 l
222.374743 81.451683 l
222.496586 92.282702 l
222.740272 85.656655 l
222.983958 98.715346 l
223.105801 83.300836 l
223.227644 92.221503 l
223.349487 88.48313 l
223.593173 98.812555 l
223.836859 88.108329 l
223.958702 93.913432 l
224.080544 78.947431 l
224.202387 89.242875 l
224.32423 77.778736 l
224.689759 96.262319 l
224.811602 90.293062 l
224.933445 94.653228 l
225.055288 90.086811 l
225.177131 93.786808 l
225.298974 86.795427 l
225.420817 86.784946 l
225.54266 94.288571 l
225.664503 80.225846 l
225.786345 82.103569 l
225.908188 94.476394 l
226.151874 85.014235 l
226.273717 89.541093 l
226.39556 85.525128 l
226.517403 97.17354 l
226.639246 92.836027 l
226.761089 104.026125 l
226.882932 101.906817 l
227.004775 93.275577 l
227.126618 99.062422 l
227.248461 90.109465 l
227.370304 93.655788 l
227.492146 88.631394 l
227.613989 90.374378 l
227.735832 94.057469 l
227.857675 72.346405 l
227.979518 92.147455 l
228.101361 87.884328 l
228.46689 68.874298 l
228.710576 94.497526 l
228.954262 76.900143 l
229.31979 97.82661 l
229.563476 81.946853 l
229.685319 82.387079 l
229.807162 86.201697 l
229.929005 96.070777 l
230.050848 76.55442 l
230.172691 83.886113 l
230.294534 84.446033 l
230.416377 83.748839 l
230.660063 98.543922 l
230.781906 90.952387 l
230.903748 93.589686 l
231.025591 92.336631 l
231.147434 83.992451 l
231.269277 99.033682 l
231.39112 85.626224 l
231.512963 115.215207 l
231.634806 89.352256 l
231.756649 99.328519 l
231.878492 97.471251 l
232.000335 101.403026 l
232.122178 99.716337 l
232.487707 115.263051 l
232.609549 115.545884 l
232.975078 131.773055 l
233.096921 113.273242 l
233.218764 119.486112 l
233.46245 109.47198 l
233.706136 125.919433 l
233.827979 118.780803 l
234.071665 132.354445 l
234.193508 117.67449 l
234.31535 142.950473 l
234.559036 114.498403 l
234.680879 113.331398 l
234.802722 107.989513 l
234.924565 113.428099 l
235.046408 109.184582 l
235.168251 113.977029 l
235.411937 92.36554 l
235.777466 101.678759 l
235.899309 107.377524 l
236.142994 97.640985 l
236.264837 97.824751 l
236.38668 82.069081 l
236.508523 106.015426 l
236.752209 85.727321 l
236.874052 85.938812 l
236.995895 88.042397 l
237.239581 86.727297 l
237.361424 98.267344 l
237.483267 89.226477 l
237.60511 90.523656 l
237.726952 95.531652 l
237.848795 84.049254 l
237.970638 89.468736 l
238.092481 87.596422 l
238.336167 95.741622 l
238.45801 92.341703 l
238.701696 112.980434 l
238.945382 94.062879 l
239.067225 90.105577 l
239.189068 91.451952 l
239.310911 86.256471 l
239.554596 92.509915 l
239.676439 78.178557 l
239.920125 98.775024 l
240.041968 100.073725 l
240.285654 83.831001 l
240.407497 102.916092 l
240.52934 85.71126 l
240.651183 91.967916 l
240.773026 92.302819 l
240.894869 79.987474 l
241.138554 93.110239 l
241.260397 76.156965 l
241.38224 79.67793 l
241.504083 86.769899 l
241.625926 77.870703 l
241.747769 85.367228 l
241.869612 83.372009 l
241.991455 97.360011 l
242.113298 79.370583 l
242.235141 94.874525 l
242.356984 79.090623 l
242.478827 94.952122 l
242.60067 92.118546 l
242.722513 75.502374 l
242.966198 95.13014 l
243.209884 81.409249 l
243.331727 89.468905 l
243.575413 85.517689 l
243.697256 76.616295 l
244.306471 114.232982 l
244.428314 125.88765 l
244.550156 83.175226 l
244.671999 87.848657 l
244.793842 121.534922 l
244.915685 86.4918 l
245.159371 124.821403 l
245.5249 86.303469 l
245.768586 119.644181 l
245.890429 111.845719 l
246.134115 125.414965 l
246.3778 150.760938 l
246.499643 144.216884 l
246.621486 119.91349 l
246.743329 124.456239 l
246.865172 123.175796 l
246.987015 130.545866 l
247.230701 104.317242 l
247.474387 120.155411 l
247.718073 101.601668 l
247.961758 106.613552 l
248.083601 107.065444 l
248.205444 99.171971 l
248.327287 116.559723 l
248.44913 112.750854 l
248.692816 97.43727 l
249.058345 119.001931 l
249.180188 102.696824 l
249.423874 105.150189 l
249.545717 90.613257 l
249.66756 110.476521 l
249.789402 96.961542 l
249.911245 113.066822 l
250.154931 89.958327 l
250.398617 104.221555 l
250.52046 89.216333 l
250.642303 95.442559 l
250.764146 82.854354 l
251.007832 102.541967 l
251.251518 86.349115 l
251.373361 96.968981 l
251.738889 85.00088 l
251.982575 86.851216 l
252.226261 78.26241 l
252.348104 83.574371 l
252.469947 80.192203 l
252.59179 100.076599 l
252.713633 84.677303 l
252.835476 96.96729 l
252.957319 75.969818 l
253.079162 81.476365 l
253.201004 94.420943 l
253.44469 84.472744 l
253.566533 94.379186 l
253.688376 80.294483 l
253.810219 96.311853 l
253.932062 74.491071 l
254.053905 95.793353 l
254.175748 87.009792 l
254.297591 91.353899 l
254.66312 78.28574 l
254.784963 101.017912 l
254.906805 89.016338 l
255.028648 88.051357 l
255.150491 80.89058 l
255.394177 90.037277 l
255.637863 73.789988 l
255.759706 96.071791 l
256.003392 85.460717 l
256.125235 84.721597 l
256.247078 88.911184 l
256.368921 86.447506 l
256.490764 86.603547 l
256.612606 91.265989 l
256.734449 102.935364 l
256.978135 88.003851 l
257.099978 87.430239 l
257.221821 85.122432 l
257.343664 77.864786 l
257.58735 95.279418 l
257.709193 89.069084 l
257.831036 99.377207 l
257.952879 82.059614 l
258.074722 82.981148 l
258.196565 79.739974 l
258.318407 82.915891 l
258.44025 70.553548 l
258.562093 85.823853 l
258.683936 85.279825 l
258.805779 94.282654 l
258.927622 75.644213 l
259.049465 87.781541 l
259.293151 71.086925 l
259.414994 79.589512 l
259.536837 74.618709 l
259.780523 91.457531 l
259.902366 72.698383 l
260.024208 72.51952 l
260.267894 84.876284 l
260.633423 71.519544 l
260.755266 80.096347 l
260.877109 80.120354 l
260.998952 79.23466 l
261.120795 106.137655 l
261.364481 72.239053 l
261.608167 87.746208 l
261.730009 65.880625 l
261.851852 96.912177 l
261.973695 83.490857 l
262.095538 87.745531 l
262.217381 76.572002 l
262.339224 77.633346 l
262.461067 94.656102 l
262.58291 85.457674 l
262.704753 93.538631 l
262.826596 79.158922 l
262.948439 98.220346 l
263.070282 85.636706 l
263.313968 119.325676 l
263.557653 92.351846 l
263.679496 146.448277 l
263.801339 104.075489 l
263.923182 165.307 l
264.045025 127.591921 l
264.166868 131.226154 l
264.288711 113.86562 l
264.410554 165.043439 l
264.65424 126.608005 l
264.897926 122.062044 l
265.019769 125.925181 l
265.141611 133.334303 l
265.385297 110.869242 l
265.50714 126.963364 l
265.628983 117.681083 l
265.750826 121.488431 l
265.872669 104.986203 l
265.994512 104.157482 l
266.116355 110.634759 l
266.360041 99.371459 l
266.481884 105.119252 l
266.603727 103.217184 l
266.72557 88.4598 l
266.969255 90.769973 l
267.212941 81.922339 l
267.334784 99.966204 l
267.456627 98.503855 l
267.700313 80.492619 l
267.822156 80.58915 l
267.943999 71.696209 l
268.187685 85.528509 l
268.431371 79.099076 l
268.553213 79.060193 l
268.675056 88.641706 l
268.796899 88.286516 l
268.918742 72.71681 l
269.040585 98.903846 l
269.527957 70.853964 l
269.6498 88.379498 l
269.771643 86.603547 l
269.893486 87.506146 l
270.015329 77.643151 l
270.137172 79.646316 l
270.259014 91.025758 l
270.380857 89.324699 l
270.624543 62.681715 l
270.746386 95.144172 l
270.868229 74.502229 l
270.990072 78.227584 l
271.111915 95.761063 l
271.355601 67.492083 l
271.477444 93.030275 l
271.599287 76.627791 l
271.72113 79.36568 l
271.842973 76.994477 l
271.964815 82.632551 l
272.086658 82.970159 l
272.208501 84.665977 l
272.330344 83.842497 l
272.57403 70.200387 l
272.695873 80.518992 l
272.817716 80.383238 l
273.183245 89.399254 l
273.426931 72.767528 l
273.548774 98.411043 l
273.670616 80.840708 l
273.792459 82.587243 l
274.036145 70.427262 l
274.279831 85.701117 l
274.401674 74.48938 l
274.64536 80.069805 l
274.767203 74.839668 l
274.889046 92.175857 l
275.010889 78.610668 l
275.254575 89.110334 l
275.376417 80.520682 l
275.49826 96.802459 l
275.620103 87.226524 l
275.741946 92.188874 l
275.863789 107.664922 l
275.985632 107.793913 l
276.107475 106.04349 l
276.229318 106.111789 l
276.473004 125.226296 l
276.594847 87.711889 l
276.71669 116.50647 l
276.838533 108.976641 l
276.960376 120.542046 l
277.082219 112.149515 l
277.204061 116.271142 l
277.447747 96.180157 l
277.56959 113.249067 l
277.691433 113.017458 l
277.935119 93.287242 l
278.178805 110.721316 l
278.300648 100.430268 l
278.422491 105.672408 l
278.544334 92.442968 l
278.666177 105.924642 l
278.78802 100.710734 l
278.909862 88.160568 l
279.031705 107.159778 l
279.153548 97.375395 l
279.275391 99.625553 l
279.519077 91.448909 l
279.64092 94.049692 l
279.762763 82.057755 l
280.128292 95.468086 l
280.250135 88.865877 l
280.371978 92.795623 l
280.493821 87.457457 l
280.615663 94.239037 l
280.737506 80.267941 l
280.981192 92.187015 l
281.103035 73.212826 l
281.224878 86.129171 l
281.346721 80.728454 l
281.468564 90.946808 l
281.590407 76.723139 l
281.71225 91.492188 l
281.834093 75.183869 l
281.955936 88.680082 l
282.077779 72.418762 l
282.321464 88.845421 l
282.443307 89.212783 l
282.56515 69.322132 l
282.686993 78.525632 l
282.808836 76.925332 l
282.930679 78.078137 l
283.052522 85.136802 l
283.174365 68.877341 l
283.296208 84.416278 l
283.418051 63.069026 l
283.539894 80.590165 l
283.661737 73.172252 l
283.78358 90.392975 l
283.905423 81.407897 l
284.027265 81.603158 l
284.149108 83.374883 l
284.270951 89.528245 l
284.392794 67.251175 l
284.514637 86.710898 l
284.758323 73.717125 l
284.880166 68.317591 l
285.002009 86.743357 l
285.245695 76.851961 l
285.367538 87.173271 l
285.611224 60.193693 l
285.733066 75.172542 l
285.854909 73.628707 l
285.976752 76.213769 l
286.098595 82.091397 l
286.220438 73.178338 l
286.342281 73.190679 l
286.464124 72.90886 l
286.585967 65.524927 l
286.70781 70.784143 l
286.829653 65.547581 l
286.951496 82.40669 l
287.195182 67.316939 l
287.317025 74.928761 l
287.438867 62.114696 l
287.56071 94.653905 l
287.682553 82.229855 l
287.804396 88.174938 l
288.048082 78.621995 l
288.169925 85.022857 l
288.291768 83.25519 l
288.535454 74.842711 l
288.657297 76.446392 l
288.77914 72.512081 l
288.900983 84.328199 l
289.022826 80.648659 l
289.144668 85.97144 l
289.388354 85.572126 l
289.510197 98.21054 l
289.63204 84.899445 l
289.753883 104.611064 l
289.875726 103.713706 l
289.997569 98.715685 l
290.119412 112.383153 l
290.241255 96.565778 l
290.363098 96.746332 l
290.484941 96.057591 l
290.606784 102.015014 l
290.850469 85.338826 l
290.972312 102.565128 l
291.215998 82.048118 l
291.459684 110.573222 l
291.825213 91.585677 l
291.947056 112.055012 l
292.190742 99.082033 l
292.312585 101.834799 l
292.434428 95.835787 l
292.55627 84.079008 l
292.678113 91.448233 l
292.799956 74.185922 l
293.043642 109.368855 l
293.165485 113.66647 l
293.287328 96.835087 l
293.409171 101.382062 l
293.531014 98.754568 l
293.652857 88.635282 l
293.7747 90.136852 l
293.896543 101.408943 l
294.018386 93.488252 l
294.262071 98.874599 l
294.383914 83.455524 l
294.505757 85.330542 l
294.6276 76.068717 l
294.749443 87.733021 l
294.993129 80.769366 l
295.236815 90.147672 l
295.358658 75.801437 l
295.480501 79.010997 l
295.602344 85.846844 l
295.724187 70.861402 l
295.967872 79.677591 l
296.089715 69.684592 l
296.333401 88.729447 l
296.455244 81.115258 l
296.577087 84.35322 l
296.69893 77.397849 l
296.820773 88.253719 l
297.064459 74.717101 l
297.186302 82.64337 l
297.308145 67.785736 l
297.551831 89.120139 l
297.795516 66.958029 l
297.917359 85.694862 l
298.039202 64.243808 l
298.282888 78.605259 l
298.404731 83.41495 l
298.526574 70.712293 l
298.77026 82.08734 l
298.892103 73.059659 l
299.013946 79.38005 l
299.135789 69.406492 l
299.257632 70.751346 l
299.379474 67.71321 l
299.501317 79.449025 l
299.866846 66.454068 l
299.988689 77.887271 l
300.110532 70.465807 l
300.232375 87.341822 l
300.354218 68.908955 l
300.597904 84.706043 l
300.719747 71.099266 l
300.84159 71.63687 l
301.207118 90.407683 l
301.328961 76.397872 l
301.450804 90.063819 l
301.572647 76.705388 l
301.816333 81.344162 l
301.938176 68.027826 l
302.060019 76.153077 l
302.181862 100.994075 l
302.303705 83.345636 l
302.425548 83.430165 l
302.547391 84.429296 l
302.669234 84.419152 l
302.791076 88.227008 l
302.912919 87.910532 l
303.278448 111.128576 l
303.400291 88.807721 l
303.643977 117.232066 l
303.76582 126.017825 l
303.887663 124.509154 l
304.009506 113.512797 l
304.131349 132.766269 l
304.253192 119.754068 l
304.375035 131.056927 l
304.496878 121.444814 l
304.61872 99.388703 l
304.862406 109.549408 l
305.106092 94.866072 l
305.227935 90.350541 l
305.349778 94.549089 l
305.593464 90.636756 l
305.715307 110.868903 l
305.83715 90.636756 l
306.080836 96.728242 l
306.202679 86.26932 l
306.324521 88.087535 l
306.446364 92.022691 l
306.568207 86.272363 l
306.69005 86.807261 l
306.811893 92.544403 l
306.933736 73.122549 l
307.055579 90.801418 l
307.421108 72.618419 l
307.542951 86.839382 l
307.664794 76.297283 l
307.786637 86.611661 l
307.90848 77.462936 l
308.030322 97.434565 l
308.274008 79.605911 l
308.395851 72.193239 l
308.517694 77.131921 l
308.639537 72.944193 l
308.76138 72.806242 l
308.883223 64.098249 l
309.005066 76.71942 l
309.126909 72.925089 l
309.248752 74.780328 l
309.370595 65.88688 l
309.492438 73.839353 l
309.736123 71.478463 l
309.857966 84.059567 l
309.979809 74.538576 l
310.101652 82.430527 l
310.223495 75.234417 l
310.345338 79.198482 l
310.589024 45.883636 l
310.710867 84.18822 l
310.83271 73.830562 l
310.954553 87.622795 l
311.076396 73.905286 l
311.198239 78.485735 l
311.441924 70.252456 l
311.68561 76.776731 l
311.807453 69.176742 l
312.051139 75.209397 l
312.172982 67.416852 l
312.416668 72.789336 l
312.538511 82.456562 l
312.660354 74.675175 l
312.90404 80.021455 l
313.147725 66.301409 l
313.269568 69.763711 l
313.391411 85.106372 l
313.513254 81.294459 l
313.635097 83.596518 l
313.75694 71.391736 l
313.878783 73.730818 l
314.000626 69.111148 l
314.122469 73.7107 l
314.244312 91.863946 l
314.609841 68.191643 l
314.731684 84.924973 l
314.853526 70.323123 l
314.975369 85.834841 l
315.097212 80.161435 l
315.219055 64.075596 l
315.340898 81.058116 l
315.462741 79.88959 l
315.584584 83.709448 l
315.706427 81.5401 l
315.82827 76.073958 l
315.950113 63.288463 l
316.193799 79.321556 l
316.437485 74.450328 l
316.559327 80.064226 l
316.68117 72.721375 l
316.803013 87.75652 l
316.924856 67.447113 l
317.290385 91.254493 l
317.412228 86.664407 l
317.534071 94.69955 l
317.655914 87.191867 l
317.777757 89.710658 l
317.8996 68.768806 l
318.021443 86.300257 l
318.143286 83.35747 l
318.265128 74.992665 l
318.386971 92.077296 l
318.508814 93.277437 l
318.630657 92.612195 l
318.7525 75.35242 l
318.996186 96.149051 l
319.118029 88.702736 l
319.239872 98.479342 l
319.361715 92.717518 l
319.605401 101.877401 l
319.727244 83.220702 l
320.092772 109.461836 l
320.214615 109.534531 l
320.336458 107.183615 l
320.580144 111.390785 l
320.701987 94.150958 l
320.945673 106.26597 l
321.067516 112.904189 l
321.311202 85.765021 l
321.433045 88.672475 l
321.554888 102.456086 l
321.67673 102.07317 l
321.798573 100.499412 l
322.042259 85.393263 l
322.164102 68.236782 l
322.407788 102.590994 l
322.529631 84.150351 l
322.773317 98.629634 l
322.89516 79.475567 l
323.138846 90.468374 l
323.260689 87.915434 l
323.504374 101.502939 l
323.626217 81.01619 l
323.74806 106.867646 l
323.869903 105.425246 l
323.991746 100.950289 l
324.113589 102.454902 l
324.357275 81.788615 l
324.479118 93.895005 l
324.600961 86.132721 l
324.722804 92.594782 l
324.96649 90.669384 l
325.210175 75.880556 l
325.575704 90.972504 l
325.697547 76.682735 l
325.81939 77.249754 l
325.941233 74.237315 l
326.063076 85.300112 l
326.184919 78.017276 l
326.306762 81.50426 l
326.428605 72.047849 l
326.550448 78.957406 l
326.672291 117.885474 l
326.915976 75.030027 l
327.037819 99.778043 l
327.159662 78.117189 l
327.281505 97.168638 l
327.403348 81.907969 l
327.525191 84.165735 l
327.647034 73.456945 l
327.768877 73.541136 l
327.89072 71.561808 l
328.012563 83.847906 l
328.134406 75.621729 l
328.378092 83.966416 l
328.499934 83.777917 l
328.621777 79.993391 l
328.865463 84.272579 l
328.987306 80.304457 l
329.109149 81.248814 l
329.230992 85.058021 l
329.352835 81.698 l
329.596521 93.320716 l
329.718364 84.033025 l
329.840207 85.321413 l
330.083893 95.585412 l
330.205735 76.790086 l
330.327578 92.7422 l
330.571264 72.70971 l
330.81495 88.047299 l
330.936793 83.684428 l
331.302322 92.232829 l
331.424165 78.29284 l
331.546008 96.989606 l
331.667851 97.054355 l
331.789694 76.354255 l
331.911537 80.172254 l
332.033379 74.94871 l
332.155222 79.386474 l
332.277065 69.98805 l
332.398908 79.103472 l
332.520751 61.752067 l
332.642594 82.787408 l
332.764437 83.417993 l
333.008123 73.183917 l
333.251809 90.205321 l
333.373652 76.62441 l
333.495495 97.077685 l
333.617338 84.690321 l
333.73918 87.62026 l
333.861023 82.839308 l
333.982866 85.980062 l
334.104709 102.363273 l
334.226552 75.610402 l
334.470238 94.725585 l
334.592081 79.081494 l
334.713924 82.884447 l
334.95761 75.566278 l
335.079453 91.813566 l
335.201296 90.791951 l
335.323139 94.636661 l
335.566824 80.819238 l
335.688667 85.020321 l
335.81051 84.383988 l
335.932353 94.320016 l
336.054196 65.384271 l
336.176039 88.348729 l
336.297882 82.463324 l
336.419725 85.024041 l
336.541568 92.254976 l
336.785254 81.159889 l
337.02894 72.101609 l
337.150782 87.543338 l
337.394468 76.79127 l
337.516311 85.37754 l
337.638154 72.889925 l
337.759997 80.906472 l
338.003683 73.89193 l
338.125526 78.806437 l
338.247369 70.114167 l
338.491055 80.387634 l
338.612898 66.204708 l
338.734741 79.946731 l
338.856583 78.532057 l
338.978426 73.593205 l
339.222112 80.864884 l
339.343955 95.811612 l
339.587641 70.128368 l
339.709484 70.543067 l
339.95317 85.109415 l
340.075013 80.469965 l
340.196856 81.864353 l
340.318699 86.186312 l
340.440542 64.455468 l
340.562384 68.236951 l
340.80607 88.778474 l
340.927913 78.183291 l
341.049756 78.126825 l
341.415285 58.056804 l
341.537128 82.381162 l
341.658971 80.792527 l
341.780814 71.36587 l
341.902657 82.142283 l
342.0245 69.943926 l
342.146343 79.751977 l
342.268185 58.971237 l
342.390028 69.110641 l
342.511871 65.591198 l
342.633714 87.547734 l
342.8774 76.958468 l
342.999243 82.881573 l
343.121086 65.97648 l
343.242929 70.399368 l
343.364772 65.881132 l
343.486615 81.524716 l
343.730301 67.170028 l
343.852144 75.648609 l
344.095829 67.442041 l
344.217672 77.143924 l
344.339515 77.921927 l
344.583201 66.716277 l
344.705044 64.458342 l
344.826887 77.610523 l
344.94873 66.187126 l
345.070573 74.258109 l
345.192416 62.812397 l
345.436102 71.872029 l
345.557945 57.765518 l
345.679787 92.230632 l
345.80163 73.758713 l
345.923473 77.076301 l
346.167159 62.478677 l
346.410845 79.718672 l
346.654531 63.803413 l
346.776374 58.268802 l
347.02006 78.906857 l
347.141903 67.873815 l
347.263746 73.649163 l
347.385588 55.000748 l
347.629274 77.652618 l
347.87296 66.949069 l
347.994803 61.901345 l
348.238489 82.489866 l
348.360332 73.047149 l
348.482175 80.44748 l
348.604018 78.260212 l
348.725861 66.494642 l
348.847704 86.202204 l
348.969547 62.660921 l
349.213232 99.245173 l
349.335075 76.454169 l
349.456918 85.213554 l
349.578761 80.557875 l
349.700604 83.954751 l
349.822447 71.696547 l
350.066133 86.58495 l
350.187976 74.287525 l
350.431662 91.840278 l
350.553505 70.021355 l
350.675348 78.361308 l
350.79719 100.4891 l
351.040876 84.007666 l
351.162719 91.2927 l
351.284562 71.914293 l
351.406405 108.667434 l
351.650091 83.638444 l
351.771934 88.385246 l
351.893777 92.371288 l
352.01562 82.556137 l
352.137463 93.488083 l
352.381149 85.166387 l
352.502991 98.493712 l
352.86852 80.89244 l
352.990363 67.365289 l
353.112206 96.403483 l
353.355892 75.390965 l
353.721421 84.038434 l
353.843264 67.90881 l
353.965107 73.96547 l
354.08695 64.484546 l
354.208792 72.716303 l
354.452478 68.779119 l
354.574321 67.477205 l
354.696164 72.859833 l
354.818007 68.599918 l
354.93985 78.051595 l
355.061693 75.58386 l
355.183536 57.468821 l
355.305379 64.832805 l
355.427222 58.517148 l
355.549065 79.513436 l
355.792751 56.705526 l
355.914593 67.399946 l
356.036436 53.584383 l
356.158279 76.736833 l
356.280122 54.784354 l
356.523808 79.252749 l
356.645651 84.554398 l
356.767494 79.228912 l
356.889337 67.660464 l
357.01118 69.583157 l
357.133023 75.98926 l
357.254866 67.506283 l
357.376709 80.28248 l
357.620394 67.106462 l
357.742237 62.51046 l
357.86408 66.544345 l
357.985923 93.567878 l
358.107766 60.960708 l
358.351452 90.918575 l
358.473295 64.589024 l
358.595138 106.894188 l
358.716981 85.846844 l
358.838824 122.712578 l
358.960667 89.267051 l
359.08251 106.95133 l
359.204353 96.748191 l
359.326196 104.046919 l
359.448038 97.285118 l
359.569881 79.746398 l
359.691724 82.996363 l
359.813567 82.163585 l
359.93541 85.948617 l
360.057253 70.993943 l
360.300939 80.396932 l
360.422782 74.980324 l
360.544625 75.845054 l
360.666468 75.485806 l
360.788311 86.137455 l
360.910154 71.3067 l
361.031997 79.881813 l
361.275682 67.909148 l
361.397525 79.701598 l
361.519368 67.410428 l
361.641211 74.698504 l
361.763054 74.76562 l
361.884897 73.126099 l
362.00674 77.890314 l
362.128583 73.080622 l
362.250426 84.319746 l
362.372269 65.822976 l
362.494112 70.544419 l
362.615955 81.908984 l
362.737798 68.903545 l
362.85964 91.625912 l
363.103326 65.062385 l
363.225169 81.915746 l
363.347012 73.760234 l
363.468855 78.274413 l
363.590698 70.282549 l
363.712541 82.0586 l
363.834384 71.503483 l
363.956227 77.226762 l
364.07807 74.490902 l
364.199913 77.284749 l
364.321756 68.719779 l
364.565441 78.935935 l
364.809127 69.449432 l
364.93097 59.313072 l
365.174656 67.258276 l
365.296499 64.695699 l
365.418342 80.722875 l
365.540185 64.237553 l
365.662028 65.882484 l
365.783871 72.010656 l
365.905714 71.367223 l
366.027557 89.131635 l
366.1494 74.790979 l
366.271242 101.745367 l
366.514928 78.858676 l
366.636771 78.253111 l
366.758614 82.756132 l
366.880457 92.818445 l
367.0023 76.040146 l
367.124143 83.247075 l
367.245986 77.088811 l
367.367829 87.160085 l
367.489672 84.788374 l
367.733358 94.652214 l
367.855201 88.960211 l
367.977043 74.020245 l
368.220729 87.205054 l
368.586258 71.785472 l
368.829944 89.538895 l
368.951787 68.572699 l
369.07363 83.534473 l
369.195473 81.545341 l
369.317316 65.360603 l
369.561002 82.16088 l
369.682844 77.454145 l
369.804687 92.616252 l
369.92653 70.409511 l
370.048373 72.723742 l
370.170216 90.791613 l
370.292059 87.955501 l
370.413902 66.833941 l
370.535745 83.815616 l
370.657588 73.563113 l
370.901274 85.938305 l
371.023117 70.277477 l
371.266803 91.562516 l
371.388645 70.829112 l
371.510488 82.30255 l
371.632331 63.485415 l
371.754174 75.709808 l
371.876017 60.615492 l
372.119703 74.679739 l
372.241546 77.886594 l
372.485232 73.126775 l
372.607075 80.190343 l
372.728918 77.103519 l
372.850761 69.719418 l
372.972604 78.250576 l
373.094446 74.330635 l
373.216289 75.322665 l
373.338132 66.18104 l
373.459975 80.137597 l
373.581818 67.475008 l
373.581818 67.475008 l
stroke
grestore
0.800 setlinewidth
0 setlinejoin
[] 0 setdash
0.000 setgray
gsave
54 36 m
54 253.44 l
stroke
grestore
gsave
388.8 36 m
388.8 253.44 l
stroke
grestore
gsave
54 36 m
388.8 36 l
stroke
grestore
gsave
54 253.44 m
388.8 253.44 l
stroke
grestore
/DejaVuSans findfont
12.000 scalefont
setfont
gsave
171.478125 259.440000 translate
0.000000 rotate
0.000000 0.000000 m /E glyphshow
7.582031 0.000000 m /v glyphshow
14.683594 0.000000 m /o glyphshow
22.025391 0.000000 m /l glyphshow
25.359375 0.000000 m /u glyphshow
32.964844 0.000000 m /t glyphshow
37.669922 0.000000 m /i glyphshow
41.003906 0.000000 m /o glyphshow
48.345703 0.000000 m /n glyphshow
55.951172 0.000000 m /space glyphshow
59.765625 0.000000 m /o glyphshow
67.107422 0.000000 m /f glyphshow
71.332031 0.000000 m /space glyphshow
75.146484 0.000000 m /B glyphshow
83.378906 0.000000 m /P glyphshow
90.615234 0.000000 m /D glyphshow
grestore
1.000 setlinewidth
0 setlinecap
0.800 setgray
gsave
377.8 240.44 m
381.8 240.44 l
383.133333 240.44 383.8 241.106667 383.8 242.44 c
383.8 246.44 l
383.8 247.773333 383.133333 248.44 381.8 248.44 c
377.8 248.44 l
376.466667 248.44 375.8 247.773333 375.8 246.44 c
375.8 242.44 l
375.8 241.106667 376.466667 240.44 377.8 240.44 c
cl
gsave
1.000 setgray
fill
grestore
stroke
grestore

end
showpage
